C:\Users\Aaldert\git\psr4_batch\elw-8\app\Controllers\AcademyController.php                                                        -> AcademyController
C:\Users\Aaldert\git\psr4_batch\elw-8\app\Controllers\AcademyFeaturesController.php                                                -> AcademyFeaturesController
C:\Users\Aaldert\git\psr4_batch\elw-8\app\Controllers\AcademyStyleController.php                                                   -> AcademyStyleController
C:\Users\Aaldert\git\psr4_batch\elw-8\app\Controllers\Api\AcademyController.php                                                    -> AcademyController
C:\Users\Aaldert\git\psr4_batch\elw-8\app\Controllers\Api\AnswerController.php                                                     -> AnswerController
C:\Users\Aaldert\git\psr4_batch\elw-8\app\Controllers\Api\AuthController.php                                                       -> AuthController
C:\Users\Aaldert\git\psr4_batch\elw-8\app\Controllers\Api\CourseController.php                                                     -> CourseController
C:\Users\Aaldert\git\psr4_batch\elw-8\app\Controllers\Api\CsvController.php                                                        -> CsvController
C:\Users\Aaldert\git\psr4_batch\elw-8\app\Controllers\Api\DocumentController.php                                                   -> DocumentController
C:\Users\Aaldert\git\psr4_batch\elw-8\app\Controllers\Api\EditorController.php                                                     -> EditorController
C:\Users\Aaldert\git\psr4_batch\elw-8\app\Controllers\Api\ElementController.php                                                    -> ElementController
C:\Users\Aaldert\git\psr4_batch\elw-8\app\Controllers\Api\ElwBeheer.php                                                            -> ElwBeheer
C:\Users\Aaldert\git\psr4_batch\elw-8\app\Controllers\Api\IntakeController.php                                                     -> IntakeController
C:\Users\Aaldert\git\psr4_batch\elw-8\app\Controllers\Api\InvoiceController.php                                                    -> InvoiceController
C:\Users\Aaldert\git\psr4_batch\elw-8\app\Controllers\Api\LicenseController.php                                                    -> LicenseController
C:\Users\Aaldert\git\psr4_batch\elw-8\app\Controllers\Api\LoggerController.php                                                     -> LoggerController
C:\Users\Aaldert\git\psr4_batch\elw-8\app\Controllers\Api\MailController.php                                                       -> MailController
C:\Users\Aaldert\git\psr4_batch\elw-8\app\Controllers\Api\ManagementController.php                                                 -> ManagementController
C:\Users\Aaldert\git\psr4_batch\elw-8\app\Controllers\Api\OrganisationController.php                                               -> OrganisationController
C:\Users\Aaldert\git\psr4_batch\elw-8\app\Controllers\Api\PageController.php                                                       -> PageController
C:\Users\Aaldert\git\psr4_batch\elw-8\app\Controllers\Api\PlatformController.php                                                   -> PlatformController
C:\Users\Aaldert\git\psr4_batch\elw-8\app\Controllers\Api\QuestionController.php                                                   -> QuestionController
C:\Users\Aaldert\git\psr4_batch\elw-8\app\Controllers\Api\ReportController.php                                                     -> ReportController
C:\Users\Aaldert\git\psr4_batch\elw-8\app\Controllers\Api\StamDataController.php                                                   -> StamDataController
C:\Users\Aaldert\git\psr4_batch\elw-8\app\Controllers\Api\TemplateController.php                                                   -> TemplateController
C:\Users\Aaldert\git\psr4_batch\elw-8\app\Controllers\Api\TestController.php                                                       -> TestController
C:\Users\Aaldert\git\psr4_batch\elw-8\app\Controllers\Api\ThemeController.php                                                      -> ThemeController
C:\Users\Aaldert\git\psr4_batch\elw-8\app\Controllers\Api\TransactionController.php                                                -> TransactionController
C:\Users\Aaldert\git\psr4_batch\elw-8\app\Controllers\Api\UserController.php                                                       -> UserController
C:\Users\Aaldert\git\psr4_batch\elw-8\app\Controllers\Api\UserGroupController.php                                                  -> UserGroupController
C:\Users\Aaldert\git\psr4_batch\elw-8\app\Controllers\Api\VideoController.php                                                      -> VideoController
C:\Users\Aaldert\git\psr4_batch\elw-8\app\Controllers\AuthController.php                                                           -> AuthController
C:\Users\Aaldert\git\psr4_batch\elw-8\app\Controllers\Base\BaseView.php                                                            -> BaseView
C:\Users\Aaldert\git\psr4_batch\elw-8\app\Controllers\BaseController.php                                                           -> BaseController
C:\Users\Aaldert\git\psr4_batch\elw-8\app\Controllers\BeheerController.php                                                         -> BeheerController
C:\Users\Aaldert\git\psr4_batch\elw-8\app\Controllers\BrokenlinksController.php                                                    -> BrokenlinksController
C:\Users\Aaldert\git\psr4_batch\elw-8\app\Controllers\ChatController.php                                                           -> ChatController
C:\Users\Aaldert\git\psr4_batch\elw-8\app\Controllers\Connectors\EsbApi.php                                                        -> EsbApi
C:\Users\Aaldert\git\psr4_batch\elw-8\app\Controllers\Connectors\EsbConsumerConnector.php                                          -> EsbConsumerConnector
C:\Users\Aaldert\git\psr4_batch\elw-8\app\Controllers\Connectors\EsbPortalAuthConnector.php                                        -> EsbPortalAuthConnector
C:\Users\Aaldert\git\psr4_batch\elw-8\app\Controllers\Connectors\EsbProducerConnector.php                                          -> EsbProducerConnector
C:\Users\Aaldert\git\psr4_batch\elw-8\app\Controllers\Connectors\EsbProducerProxyConnector.php                                     -> EsbProducerProxyConnector
C:\Users\Aaldert\git\psr4_batch\elw-8\app\Controllers\ContactController.php                                                        -> ContactController
C:\Users\Aaldert\git\psr4_batch\elw-8\app\Controllers\ContentController.php                                                        -> ContentController
C:\Users\Aaldert\git\psr4_batch\elw-8\app\Controllers\CourseController.php                                                         -> CourseController
C:\Users\Aaldert\git\psr4_batch\elw-8\app\Controllers\CourseinfoController.php                                                     -> CourseinfoController
C:\Users\Aaldert\git\psr4_batch\elw-8\app\Controllers\CsvimportController.php                                                      -> CsvimportController
C:\Users\Aaldert\git\psr4_batch\elw-8\app\Controllers\EvaluationController.php                                                     -> EvaluationController
C:\Users\Aaldert\git\psr4_batch\elw-8\app\Controllers\FrontpageRowsController.php                                                  -> FrontpageRowsController
C:\Users\Aaldert\git\psr4_batch\elw-8\app\Controllers\GuestController.php                                                          -> GuestController
C:\Users\Aaldert\git\psr4_batch\elw-8\app\Controllers\ImportController.php                                                         -> ImportController
C:\Users\Aaldert\git\psr4_batch\elw-8\app\Controllers\ImportusersrController.php                                                   -> ImportusersrController
C:\Users\Aaldert\git\psr4_batch\elw-8\app\Controllers\ManagementController.php                                                     -> ManagementController
C:\Users\Aaldert\git\psr4_batch\elw-8\app\Controllers\MededelingenController.php                                                   -> MededelingenController
C:\Users\Aaldert\git\psr4_batch\elw-8\app\Controllers\MembershipValidator.php                                                      -> MembershipValidator
C:\Users\Aaldert\git\psr4_batch\elw-8\app\Controllers\Migration.trait.php                                                          -> Migration.trait
C:\Users\Aaldert\git\psr4_batch\elw-8\app\Controllers\MigrationController.php                                                      -> MigrationController
C:\Users\Aaldert\git\psr4_batch\elw-8\app\Controllers\NewsletterController.php                                                     -> NewsletterController
C:\Users\Aaldert\git\psr4_batch\elw-8\app\Controllers\Oauth\OAuthController.php                                                    -> OAuthController
C:\Users\Aaldert\git\psr4_batch\elw-8\app\Controllers\Oauth\ResourceController.php                                                 -> ResourceController
C:\Users\Aaldert\git\psr4_batch\elw-8\app\Controllers\Oauth\oAuthState.php                                                         -> OAuthState
C:\Users\Aaldert\git\psr4_batch\elw-8\app\Controllers\RemoteLoggerController.php                                                   -> RemoteLoggerController
C:\Users\Aaldert\git\psr4_batch\elw-8\app\Controllers\Reports\EvaluationController.php                                             -> EvaluationController
C:\Users\Aaldert\git\psr4_batch\elw-8\app\Controllers\Reports\Excelheaders.php                                                     -> Excelheaders
C:\Users\Aaldert\git\psr4_batch\elw-8\app\Controllers\Reports\ManagementReportController.php                                       -> ManagementReportController
C:\Users\Aaldert\git\psr4_batch\elw-8\app\Controllers\ScholingsearchController.php                                                 -> ScholingsearchController
C:\Users\Aaldert\git\psr4_batch\elw-8\app\Controllers\Scripts\BazaltController.php                                                 -> BazaltController
C:\Users\Aaldert\git\psr4_batch\elw-8\app\Controllers\Scripts\EdutrainersController.php                                            -> EdutrainersController
C:\Users\Aaldert\git\psr4_batch\elw-8\app\Controllers\StamdataController.php                                                       -> StamdataController
C:\Users\Aaldert\git\psr4_batch\elw-8\app\Controllers\SubscriptionValidator.php                                                    -> SubscriptionValidator
C:\Users\Aaldert\git\psr4_batch\elw-8\app\Controllers\Systemapi\ApiController.php                                                  -> ApiController
C:\Users\Aaldert\git\psr4_batch\elw-8\app\Controllers\Systemapi\ApiResponse.php                                                    -> ApiResponse
C:\Users\Aaldert\git\psr4_batch\elw-8\app\Controllers\Systemapi\CourseData.php                                                     -> CourseData
C:\Users\Aaldert\git\psr4_batch\elw-8\app\Controllers\Systemapi\CourseInfo.php                                                     -> CourseInfo
C:\Users\Aaldert\git\psr4_batch\elw-8\app\Controllers\Test\AcceptanceController.php                                                -> AcceptanceController
C:\Users\Aaldert\git\psr4_batch\elw-8\app\Controllers\ThemesessionController.php                                                   -> ThemesessionController
C:\Users\Aaldert\git\psr4_batch\elw-8\app\Controllers\ToolboxController.php                                                        -> ToolboxController
C:\Users\Aaldert\git\psr4_batch\elw-8\app\Controllers\TrainingAllowanceController.php                                              -> TrainingAllowanceController
C:\Users\Aaldert\git\psr4_batch\elw-8\app\Controllers\TrainingController.php                                                       -> TrainingController
C:\Users\Aaldert\git\psr4_batch\elw-8\app\Controllers\TrainingOfferController.php                                                  -> TrainingOfferController
C:\Users\Aaldert\git\psr4_batch\elw-8\app\Controllers\TrainingreportController.php                                                 -> TrainingreportController
C:\Users\Aaldert\git\psr4_batch\elw-8\app\Controllers\TransactionController.php                                                    -> TransactionController
C:\Users\Aaldert\git\psr4_batch\elw-8\app\Controllers\UploadController.php                                                         -> UploadController
C:\Users\Aaldert\git\psr4_batch\elw-8\app\Controllers\UserController.php                                                           -> UserController
C:\Users\Aaldert\git\psr4_batch\elw-8\app\Controllers\UsercourseGrid.php                                                           -> UsercourseGrid
C:\Users\Aaldert\git\psr4_batch\elw-8\app\Controllers\UserprofileController.php                                                    -> UserprofileController
C:\Users\Aaldert\git\psr4_batch\elw-8\app\Controllers\UsersController.php                                                          -> UsersController
C:\Users\Aaldert\git\psr4_batch\elw-8\app\Controllers\ssoController.php                                                            -> SsoController
C:\Users\Aaldert\git\psr4_batch\elw-8\app\Entities\Academy.php                                                                     -> Academy
C:\Users\Aaldert\git\psr4_batch\elw-8\app\Entities\AcademyPaymentMethod.php                                                        -> AcademyPaymentMethod
C:\Users\Aaldert\git\psr4_batch\elw-8\app\Entities\AppConstants.php                                                                -> AppConstants
C:\Users\Aaldert\git\psr4_batch\elw-8\app\Entities\CertificateType.php                                                             -> CertificateType
C:\Users\Aaldert\git\psr4_batch\elw-8\app\Entities\ClientUserCourseStatus.php                                                      -> ClientUserCourseStatus
C:\Users\Aaldert\git\psr4_batch\elw-8\app\Entities\CourseInfo.php                                                                  -> CourseInfo
C:\Users\Aaldert\git\psr4_batch\elw-8\app\Entities\CourseType.php                                                                  -> CourseType
C:\Users\Aaldert\git\psr4_batch\elw-8\app\Entities\CourseViewMode.php                                                              -> CourseViewMode
C:\Users\Aaldert\git\psr4_batch\elw-8\app\Entities\Courseindexing.php                                                              -> Courseindexing
C:\Users\Aaldert\git\psr4_batch\elw-8\app\Entities\CustomStyle.php                                                                 -> CustomStyle
C:\Users\Aaldert\git\psr4_batch\elw-8\app\Entities\Element.php                                                                     -> Element
C:\Users\Aaldert\git\psr4_batch\elw-8\app\Entities\EmailMode.php                                                                   -> EmailMode
C:\Users\Aaldert\git\psr4_batch\elw-8\app\Entities\EmailType.php                                                                   -> EmailType
C:\Users\Aaldert\git\psr4_batch\elw-8\app\Entities\EndpointType.php                                                                -> EndpointType
C:\Users\Aaldert\git\psr4_batch\elw-8\app\Entities\EnvironmentInfo.php                                                             -> EnvironmentInfo
C:\Users\Aaldert\git\psr4_batch\elw-8\app\Entities\EvaluationFormType.php                                                          -> EvaluationFormType
C:\Users\Aaldert\git\psr4_batch\elw-8\app\Entities\Events.php                                                                      -> Events
C:\Users\Aaldert\git\psr4_batch\elw-8\app\Entities\ExamResult.php                                                                  -> ExamResult
C:\Users\Aaldert\git\psr4_batch\elw-8\app\Entities\ExternalReferer.php                                                             -> ExternalReferer
C:\Users\Aaldert\git\psr4_batch\elw-8\app\Entities\Gender.php                                                                      -> Gender
C:\Users\Aaldert\git\psr4_batch\elw-8\app\Entities\Header.php                                                                      -> Header
C:\Users\Aaldert\git\psr4_batch\elw-8\app\Entities\IFrame.php                                                                      -> IFrame
C:\Users\Aaldert\git\psr4_batch\elw-8\app\Entities\InnovoUser.php                                                                  -> InnovoUser
C:\Users\Aaldert\git\psr4_batch\elw-8\app\Entities\InvoiceType.php                                                                 -> InvoiceType
C:\Users\Aaldert\git\psr4_batch\elw-8\app\Entities\JobStatus.php                                                                   -> JobStatus
C:\Users\Aaldert\git\psr4_batch\elw-8\app\Entities\JobType.php                                                                     -> JobType
C:\Users\Aaldert\git\psr4_batch\elw-8\app\Entities\LicenseStatus.php                                                               -> LicenseStatus
C:\Users\Aaldert\git\psr4_batch\elw-8\app\Entities\LicenseType.php                                                                 -> LicenseType
C:\Users\Aaldert\git\psr4_batch\elw-8\app\Entities\LogEvent.php                                                                    -> LogEvent
C:\Users\Aaldert\git\psr4_batch\elw-8\app\Entities\LogLevel.php                                                                    -> LogLevel
C:\Users\Aaldert\git\psr4_batch\elw-8\app\Entities\LogType.php                                                                     -> LogType
C:\Users\Aaldert\git\psr4_batch\elw-8\app\Entities\ManagementLevel.php                                                             -> ManagementLevel
C:\Users\Aaldert\git\psr4_batch\elw-8\app\Entities\MetaData.php                                                                    -> MetaData
C:\Users\Aaldert\git\psr4_batch\elw-8\app\Entities\MooUser.php                                                                     -> MooUser
C:\Users\Aaldert\git\psr4_batch\elw-8\app\Entities\OperandType.php                                                                 -> OperandType
C:\Users\Aaldert\git\psr4_batch\elw-8\app\Entities\Organisation.php                                                                -> Organisation
C:\Users\Aaldert\git\psr4_batch\elw-8\app\Entities\OrganisationLevel.php                                                           -> OrganisationLevel
C:\Users\Aaldert\git\psr4_batch\elw-8\app\Entities\OrganisationSelectType.php                                                      -> OrganisationSelectType
C:\Users\Aaldert\git\psr4_batch\elw-8\app\Entities\PageContainer.php                                                               -> PageContainer
C:\Users\Aaldert\git\psr4_batch\elw-8\app\Entities\PageContentKey.php                                                              -> PageContentKey
C:\Users\Aaldert\git\psr4_batch\elw-8\app\Entities\PageMode.php                                                                    -> PageMode
C:\Users\Aaldert\git\psr4_batch\elw-8\app\Entities\PageTemplate.php                                                                -> PageTemplate
C:\Users\Aaldert\git\psr4_batch\elw-8\app\Entities\PageTree.php                                                                    -> PageTree
C:\Users\Aaldert\git\psr4_batch\elw-8\app\Entities\PageType.php                                                                    -> PageType
C:\Users\Aaldert\git\psr4_batch\elw-8\app\Entities\ParentLicenseType.php                                                           -> ParentLicenseType
C:\Users\Aaldert\git\psr4_batch\elw-8\app\Entities\PayOptionType.php                                                               -> PayOptionType
C:\Users\Aaldert\git\psr4_batch\elw-8\app\Entities\PaymentOption.php                                                               -> PaymentOption
C:\Users\Aaldert\git\psr4_batch\elw-8\app\Entities\PaymentStatus.php                                                               -> PaymentStatus
C:\Users\Aaldert\git\psr4_batch\elw-8\app\Entities\Platform.php                                                                    -> Platform
C:\Users\Aaldert\git\psr4_batch\elw-8\app\Entities\QuestionElement.php                                                             -> QuestionElement
C:\Users\Aaldert\git\psr4_batch\elw-8\app\Entities\QuestionMode.php                                                                -> QuestionMode
C:\Users\Aaldert\git\psr4_batch\elw-8\app\Entities\QuestionType.php                                                                -> QuestionType
C:\Users\Aaldert\git\psr4_batch\elw-8\app\Entities\RawResult.php                                                                   -> RawResult
C:\Users\Aaldert\git\psr4_batch\elw-8\app\Entities\Role.php                                                                        -> Role
C:\Users\Aaldert\git\psr4_batch\elw-8\app\Entities\Routes.php                                                                      -> Routes
C:\Users\Aaldert\git\psr4_batch\elw-8\app\Entities\SisowMerchant.php                                                               -> SisowMerchant
C:\Users\Aaldert\git\psr4_batch\elw-8\app\Entities\StaffelType.php                                                                 -> StaffelType
C:\Users\Aaldert\git\psr4_batch\elw-8\app\Entities\StamDataType.php                                                                -> StamDataType
C:\Users\Aaldert\git\psr4_batch\elw-8\app\Entities\StatusRequest.php                                                               -> StatusRequest
C:\Users\Aaldert\git\psr4_batch\elw-8\app\Entities\SubscriptType.php                                                               -> SubscriptType
C:\Users\Aaldert\git\psr4_batch\elw-8\app\Entities\Sync\CsvCollection.php                                                          -> CsvCollection
C:\Users\Aaldert\git\psr4_batch\elw-8\app\Entities\Sync\InnovoUserOrganisationSyncer.php                                           -> InnovoUserOrganisationSyncer
C:\Users\Aaldert\git\psr4_batch\elw-8\app\Entities\TargetMode.php                                                                  -> TargetMode
C:\Users\Aaldert\git\psr4_batch\elw-8\app\Entities\TaskOperator.php                                                                -> TaskOperator
C:\Users\Aaldert\git\psr4_batch\elw-8\app\Entities\TaskStatus.php                                                                  -> TaskStatus
C:\Users\Aaldert\git\psr4_batch\elw-8\app\Entities\TemplateType.php                                                                -> TemplateType
C:\Users\Aaldert\git\psr4_batch\elw-8\app\Entities\TestUser.php                                                                    -> TestUser
C:\Users\Aaldert\git\psr4_batch\elw-8\app\Entities\ThemeType.php                                                                   -> ThemeType
C:\Users\Aaldert\git\psr4_batch\elw-8\app\Entities\TokenSubType.php                                                                -> TokenSubType
C:\Users\Aaldert\git\psr4_batch\elw-8\app\Entities\TokenType.php                                                                   -> TokenType
C:\Users\Aaldert\git\psr4_batch\elw-8\app\Entities\Training\Trainingtypes.php                                                      -> Trainingtypes
C:\Users\Aaldert\git\psr4_batch\elw-8\app\Entities\TransactionRequest.php                                                          -> TransactionRequest
C:\Users\Aaldert\git\psr4_batch\elw-8\app\Entities\TransactionStatus.php                                                           -> TransactionStatus
C:\Users\Aaldert\git\psr4_batch\elw-8\app\Entities\TransactionSubType.php                                                          -> TransactionSubType
C:\Users\Aaldert\git\psr4_batch\elw-8\app\Entities\TransactionType.php                                                             -> TransactionType
C:\Users\Aaldert\git\psr4_batch\elw-8\app\Entities\UserAnswerGroup.php                                                             -> UserAnswerGroup
C:\Users\Aaldert\git\psr4_batch\elw-8\app\Entities\UserCourseCategory.php                                                          -> UserCourseCategory
C:\Users\Aaldert\git\psr4_batch\elw-8\app\Entities\UserCourseStatus.php                                                            -> UserCourseStatus
C:\Users\Aaldert\git\psr4_batch\elw-8\app\Entities\UserCourseType.php                                                              -> UserCourseType
C:\Users\Aaldert\git\psr4_batch\elw-8\app\Entities\UserKeyType.php                                                                 -> UserKeyType
C:\Users\Aaldert\git\psr4_batch\elw-8\app\Entities\UserMode.php                                                                    -> UserMode
C:\Users\Aaldert\git\psr4_batch\elw-8\app\Entities\VaboUser.php                                                                    -> VaboUser
C:\Users\Aaldert\git\psr4_batch\elw-8\app\Entities\XhrRedirect.php                                                                 -> XhrRedirect
C:\Users\Aaldert\git\psr4_batch\elw-8\app\Models\Academy.php                                                                       -> Academy
C:\Users\Aaldert\git\psr4_batch\elw-8\app\Models\AcademyCourse.php                                                                 -> AcademyCourse
C:\Users\Aaldert\git\psr4_batch\elw-8\app\Models\AcademyCoursePage.php                                                             -> AcademyCoursePage
C:\Users\Aaldert\git\psr4_batch\elw-8\app\Models\AcademyDemo.php                                                                   -> AcademyDemo
C:\Users\Aaldert\git\psr4_batch\elw-8\app\Models\Academystyle.php                                                                  -> Academystyle
C:\Users\Aaldert\git\psr4_batch\elw-8\app\Models\Academystyletype.php                                                              -> Academystyletype
C:\Users\Aaldert\git\psr4_batch\elw-8\app\Models\Announcement.php                                                                  -> Announcement
C:\Users\Aaldert\git\psr4_batch\elw-8\app\Models\Announcement_user.php                                                             -> Announcement_user
C:\Users\Aaldert\git\psr4_batch\elw-8\app\Models\Answer.php                                                                        -> Answer
C:\Users\Aaldert\git\psr4_batch\elw-8\app\Models\Brokenlink.php                                                                    -> Brokenlink
C:\Users\Aaldert\git\psr4_batch\elw-8\app\Models\Certificate.php                                                                   -> Certificate
C:\Users\Aaldert\git\psr4_batch\elw-8\app\Models\Chat.php                                                                          -> Chat
C:\Users\Aaldert\git\psr4_batch\elw-8\app\Models\Chatgroup.php                                                                     -> Chatgroup
C:\Users\Aaldert\git\psr4_batch\elw-8\app\Models\Chatgroupmember.php                                                               -> Chatgroupmember
C:\Users\Aaldert\git\psr4_batch\elw-8\app\Models\Chatreads.php                                                                     -> Chatreads
C:\Users\Aaldert\git\psr4_batch\elw-8\app\Models\ClipBoard.php                                                                     -> ClipBoard
C:\Users\Aaldert\git\psr4_batch\elw-8\app\Models\Course.php                                                                        -> Course
C:\Users\Aaldert\git\psr4_batch\elw-8\app\Models\CourseIndexword.php                                                               -> CourseIndexword
C:\Users\Aaldert\git\psr4_batch\elw-8\app\Models\CourseLicense.php                                                                 -> CourseLicense
C:\Users\Aaldert\git\psr4_batch\elw-8\app\Models\Courseview.php                                                                    -> Courseview
C:\Users\Aaldert\git\psr4_batch\elw-8\app\Models\Element.php                                                                       -> Element
C:\Users\Aaldert\git\psr4_batch\elw-8\app\Models\ElwLog.php                                                                        -> ElwLog
C:\Users\Aaldert\git\psr4_batch\elw-8\app\Models\ElwReport.php                                                                     -> ElwReport
C:\Users\Aaldert\git\psr4_batch\elw-8\app\Models\Elwbeheer\Mededelingen.php                                                        -> Mededelingen
C:\Users\Aaldert\git\psr4_batch\elw-8\app\Models\Elwbeheer\SeenAnnouncement.php                                                    -> SeenAnnouncement
C:\Users\Aaldert\git\psr4_batch\elw-8\app\Models\Elwbeheer\Sets_abonnement.php                                                     -> Sets_abonnement
C:\Users\Aaldert\git\psr4_batch\elw-8\app\Models\Elwbeheer\Sets_academy.php                                                        -> Sets_academy
C:\Users\Aaldert\git\psr4_batch\elw-8\app\Models\Elwbeheer\Sets_user.php                                                           -> Sets_user
C:\Users\Aaldert\git\psr4_batch\elw-8\app\Models\Elwbeheer\User_extracourse.php                                                    -> User_extracourse
C:\Users\Aaldert\git\psr4_batch\elw-8\app\Models\Email.php                                                                         -> Email
C:\Users\Aaldert\git\psr4_batch\elw-8\app\Models\Endorsement.php                                                                   -> Endorsement
C:\Users\Aaldert\git\psr4_batch\elw-8\app\Models\Evaluation.php                                                                    -> Evaluation
C:\Users\Aaldert\git\psr4_batch\elw-8\app\Models\Evaluationanswer.php                                                              -> Evaluationanswer
C:\Users\Aaldert\git\psr4_batch\elw-8\app\Models\Evaluationform.php                                                                -> Evaluationform
C:\Users\Aaldert\git\psr4_batch\elw-8\app\Models\Evaluationmultiple.php                                                            -> Evaluationmultiple
C:\Users\Aaldert\git\psr4_batch\elw-8\app\Models\Evaluationquestion.php                                                            -> Evaluationquestion
C:\Users\Aaldert\git\psr4_batch\elw-8\app\Models\Favorite.php                                                                      -> Favorite
C:\Users\Aaldert\git\psr4_batch\elw-8\app\Models\Fileuploadlogging.php                                                             -> Fileuploadlogging
C:\Users\Aaldert\git\psr4_batch\elw-8\app\Models\Frontpagerow.php                                                                  -> Frontpagerow
C:\Users\Aaldert\git\psr4_batch\elw-8\app\Models\Frontpagetrainingrow.php                                                          -> Frontpagetrainingrow
C:\Users\Aaldert\git\psr4_batch\elw-8\app\Models\Group.php                                                                         -> Group
C:\Users\Aaldert\git\psr4_batch\elw-8\app\Models\Importeduser.php                                                                  -> Importeduser
C:\Users\Aaldert\git\psr4_batch\elw-8\app\Models\Indexword.php                                                                     -> Indexword
C:\Users\Aaldert\git\psr4_batch\elw-8\app\Models\Interest.php                                                                      -> Interest
C:\Users\Aaldert\git\psr4_batch\elw-8\app\Models\Invoice.php                                                                       -> Invoice
C:\Users\Aaldert\git\psr4_batch\elw-8\app\Models\Job.php                                                                           -> Job
C:\Users\Aaldert\git\psr4_batch\elw-8\app\Models\JobBatch.php                                                                      -> JobBatch
C:\Users\Aaldert\git\psr4_batch\elw-8\app\Models\License.php                                                                       -> License
C:\Users\Aaldert\git\psr4_batch\elw-8\app\Models\Likes.php                                                                         -> Likes
C:\Users\Aaldert\git\psr4_batch\elw-8\app\Models\Organisation.php                                                                  -> Organisation
C:\Users\Aaldert\git\psr4_batch\elw-8\app\Models\Organisationuser.php                                                              -> Organisationuser
C:\Users\Aaldert\git\psr4_batch\elw-8\app\Models\Page.php                                                                          -> Page
C:\Users\Aaldert\git\psr4_batch\elw-8\app\Models\PageContent.php                                                                   -> PageContent
C:\Users\Aaldert\git\psr4_batch\elw-8\app\Models\PayOption.php                                                                     -> PayOption
C:\Users\Aaldert\git\psr4_batch\elw-8\app\Models\Platform.php                                                                      -> Platform
C:\Users\Aaldert\git\psr4_batch\elw-8\app\Models\Question.php                                                                      -> Question
C:\Users\Aaldert\git\psr4_batch\elw-8\app\Models\QuestionGroup.php                                                                 -> QuestionGroup
C:\Users\Aaldert\git\psr4_batch\elw-8\app\Models\Searchtext.php                                                                    -> Searchtext
C:\Users\Aaldert\git\psr4_batch\elw-8\app\Models\Searchweight.php                                                                  -> Searchweight
C:\Users\Aaldert\git\psr4_batch\elw-8\app\Models\Specialism.php                                                                    -> Specialism
C:\Users\Aaldert\git\psr4_batch\elw-8\app\Models\Sql\Courses\CourseSelect.php                                                      -> CourseSelect
C:\Users\Aaldert\git\psr4_batch\elw-8\app\Models\Sql\Courses\Courses.php                                                           -> Courses
C:\Users\Aaldert\git\psr4_batch\elw-8\app\Models\Sql\Courses\CoursesGroupby.php                                                    -> CoursesGroupby
C:\Users\Aaldert\git\psr4_batch\elw-8\app\Models\Sql\EvaluationRepondents.php                                                      -> EvaluationRepondents
C:\Users\Aaldert\git\psr4_batch\elw-8\app\Models\Sql\EvaluationScoreSelect.php                                                     -> EvaluationScoreSelect
C:\Users\Aaldert\git\psr4_batch\elw-8\app\Models\Sql\EvaluationScores.php                                                          -> EvaluationScores
C:\Users\Aaldert\git\psr4_batch\elw-8\app\Models\Sql\EvaluationsAverage.php                                                        -> EvaluationsAverage
C:\Users\Aaldert\git\psr4_batch\elw-8\app\Models\Sql\Evaluationstotals.php                                                         -> Evaluationstotals
C:\Users\Aaldert\git\psr4_batch\elw-8\app\Models\Sql\SearchCourses.php                                                             -> SearchCourses
C:\Users\Aaldert\git\psr4_batch\elw-8\app\Models\Sql\SearchEvaluation.php                                                          -> SearchEvaluation
C:\Users\Aaldert\git\psr4_batch\elw-8\app\Models\Sql\Studentcourses\StudentcourseSelect.php                                        -> StudentcourseSelect
C:\Users\Aaldert\git\psr4_batch\elw-8\app\Models\Sql\Studentcourses\Studentcourses.php                                             -> Studentcourses
C:\Users\Aaldert\git\psr4_batch\elw-8\app\Models\Sql\Studentcourses\StudentcoursesGroupby.php                                      -> StudentcoursesGroupby
C:\Users\Aaldert\git\psr4_batch\elw-8\app\Models\Sql\TrainingGridUsers.php                                                         -> TrainingGridUsers
C:\Users\Aaldert\git\psr4_batch\elw-8\app\Models\Staffel.php                                                                       -> Staffel
C:\Users\Aaldert\git\psr4_batch\elw-8\app\Models\StamData.php                                                                      -> StamData
C:\Users\Aaldert\git\psr4_batch\elw-8\app\Models\Subscription.php                                                                  -> Subscription
C:\Users\Aaldert\git\psr4_batch\elw-8\app\Models\Task.php                                                                          -> Task
C:\Users\Aaldert\git\psr4_batch\elw-8\app\Models\TempToken.php                                                                     -> TempToken
C:\Users\Aaldert\git\psr4_batch\elw-8\app\Models\Template.php                                                                      -> Template
C:\Users\Aaldert\git\psr4_batch\elw-8\app\Models\Theme.php                                                                         -> Theme
C:\Users\Aaldert\git\psr4_batch\elw-8\app\Models\Themedayround.php                                                                 -> Themedayround
C:\Users\Aaldert\git\psr4_batch\elw-8\app\Models\Themedaysession.php                                                               -> Themedaysession
C:\Users\Aaldert\git\psr4_batch\elw-8\app\Models\Training.php                                                                      -> Training
C:\Users\Aaldert\git\psr4_batch\elw-8\app\Models\TrainingParticipationEvaluation.php                                               -> TrainingParticipationEvaluation
C:\Users\Aaldert\git\psr4_batch\elw-8\app\Models\Trainingdocument.php                                                              -> Trainingdocument
C:\Users\Aaldert\git\psr4_batch\elw-8\app\Models\Trainingevent.php                                                                 -> Trainingevent
C:\Users\Aaldert\git\psr4_batch\elw-8\app\Models\Trainingeventdate.php                                                             -> Trainingeventdate
C:\Users\Aaldert\git\psr4_batch\elw-8\app\Models\Trainingjudgement.php                                                             -> Trainingjudgement
C:\Users\Aaldert\git\psr4_batch\elw-8\app\Models\Trainingorganisation.php                                                          -> Trainingorganisation
C:\Users\Aaldert\git\psr4_batch\elw-8\app\Models\Trainingparticipation.php                                                         -> Trainingparticipation
C:\Users\Aaldert\git\psr4_batch\elw-8\app\Models\Trainingpresence.php                                                              -> Trainingpresence
C:\Users\Aaldert\git\psr4_batch\elw-8\app\Models\Trainingstamdata.php                                                              -> Trainingstamdata
C:\Users\Aaldert\git\psr4_batch\elw-8\app\Models\Trainingtarget.php                                                                -> Trainingtarget
C:\Users\Aaldert\git\psr4_batch\elw-8\app\Models\Trainingtype.php                                                                  -> Trainingtype
C:\Users\Aaldert\git\psr4_batch\elw-8\app\Models\Transaction.php                                                                   -> Transaction
C:\Users\Aaldert\git\psr4_batch\elw-8\app\Models\User.php                                                                          -> User
C:\Users\Aaldert\git\psr4_batch\elw-8\app\Models\UserAnswer.php                                                                    -> UserAnswer
C:\Users\Aaldert\git\psr4_batch\elw-8\app\Models\UserCourse.php                                                                    -> UserCourse
C:\Users\Aaldert\git\psr4_batch\elw-8\app\Models\UserCourseEvaluation.php                                                          -> UserCourseEvaluation
C:\Users\Aaldert\git\psr4_batch\elw-8\app\Models\UserKey.php                                                                       -> UserKey
C:\Users\Aaldert\git\psr4_batch\elw-8\app\Models\User_status.php                                                                   -> User_status
C:\Users\Aaldert\git\psr4_batch\elw-8\app\Models\Userfunctions.php                                                                 -> Userfunctions
C:\Users\Aaldert\git\psr4_batch\elw-8\app\Models\Userinterest.php                                                                  -> Userinterest
C:\Users\Aaldert\git\psr4_batch\elw-8\app\Models\Userprofile.php                                                                   -> Userprofile
C:\Users\Aaldert\git\psr4_batch\elw-8\app\Models\Userspecialism.php                                                                -> Userspecialism
C:\Users\Aaldert\git\psr4_batch\elw-8\app\Models\Usertestimonial.php                                                               -> Usertestimonial
C:\Users\Aaldert\git\psr4_batch\elw-8\app\Models\VideoCaption.php                                                                  -> VideoCaption
C:\Users\Aaldert\git\psr4_batch\elw-8\app\Models\VideoLesson.php                                                                   -> VideoLesson
C:\Users\Aaldert\git\psr4_batch\elw-8\app\Models\Wishes_course_user.php                                                            -> Wishes_course_user
C:\Users\Aaldert\git\psr4_batch\elw-8\app\Services\AcademyService.php                                                              -> AcademyService
C:\Users\Aaldert\git\psr4_batch\elw-8\app\Services\AcademyServiceInterface.php                                                     -> AcademyServiceInterface
C:\Users\Aaldert\git\psr4_batch\elw-8\app\Services\AccessService.php                                                               -> AccessService
C:\Users\Aaldert\git\psr4_batch\elw-8\app\Services\AccessServiceInterface.php                                                      -> AccessServiceInterface
C:\Users\Aaldert\git\psr4_batch\elw-8\app\Services\AuthenticationService.php                                                       -> AuthenticationService
C:\Users\Aaldert\git\psr4_batch\elw-8\app\Services\AuthenticationServiceInterface.php                                              -> AuthenticationServiceInterface
C:\Users\Aaldert\git\psr4_batch\elw-8\app\Services\Brokenlinks\CheckUrls.php                                                       -> CheckUrls
C:\Users\Aaldert\git\psr4_batch\elw-8\app\Services\Brokenlinks\FindCoursesLinks.php                                                -> FindCoursesLinks
C:\Users\Aaldert\git\psr4_batch\elw-8\app\Services\Chat\ChatMessage.php                                                            -> ChatMessage
C:\Users\Aaldert\git\psr4_batch\elw-8\app\Services\ClipBoardService.php                                                            -> ClipBoardService
C:\Users\Aaldert\git\psr4_batch\elw-8\app\Services\ClipBoardServiceInterface.php                                                   -> ClipBoardServiceInterface
C:\Users\Aaldert\git\psr4_batch\elw-8\app\Services\CourseService.php                                                               -> CourseService
C:\Users\Aaldert\git\psr4_batch\elw-8\app\Services\CourseServiceInterface.php                                                      -> CourseServiceInterface
C:\Users\Aaldert\git\psr4_batch\elw-8\app\Services\Dto\AcademyCourseDto.php                                                        -> AcademyCourseDto
C:\Users\Aaldert\git\psr4_batch\elw-8\app\Services\Dto\AcademyCoursePageDto.php                                                    -> AcademyCoursePageDto
C:\Users\Aaldert\git\psr4_batch\elw-8\app\Services\Dto\AcademyDemoDto.php                                                          -> AcademyDemoDto
C:\Users\Aaldert\git\psr4_batch\elw-8\app\Services\Dto\AcademyDto.php                                                              -> AcademyDto
C:\Users\Aaldert\git\psr4_batch\elw-8\app\Services\Dto\AnswerDto.php                                                               -> AnswerDto
C:\Users\Aaldert\git\psr4_batch\elw-8\app\Services\Dto\CertificateDto.php                                                          -> CertificateDto
C:\Users\Aaldert\git\psr4_batch\elw-8\app\Services\Dto\ClipBoardDto.php                                                            -> ClipBoardDto
C:\Users\Aaldert\git\psr4_batch\elw-8\app\Services\Dto\CourseDto.php                                                               -> CourseDto
C:\Users\Aaldert\git\psr4_batch\elw-8\app\Services\Dto\CourseFilterDto.php                                                         -> CourseFilterDto
C:\Users\Aaldert\git\psr4_batch\elw-8\app\Services\Dto\CourseInfoDto.php                                                           -> CourseInfoDto
C:\Users\Aaldert\git\psr4_batch\elw-8\app\Services\Dto\CourseLicenseInfoDto.php                                                    -> CourseLicenseInfoDto
C:\Users\Aaldert\git\psr4_batch\elw-8\app\Services\Dto\CourseMetaDataDto.php                                                       -> CourseMetaDataDto
C:\Users\Aaldert\git\psr4_batch\elw-8\app\Services\Dto\CourseOverviewDto.php                                                       -> CourseOverviewDto
C:\Users\Aaldert\git\psr4_batch\elw-8\app\Services\Dto\CourseRelationInfoDto.php                                                   -> CourseRelationInfoDto
C:\Users\Aaldert\git\psr4_batch\elw-8\app\Services\Dto\CustomStyleDto.php                                                          -> CustomStyleDto
C:\Users\Aaldert\git\psr4_batch\elw-8\app\Services\Dto\EmailDto.php                                                                -> EmailDto
C:\Users\Aaldert\git\psr4_batch\elw-8\app\Services\Dto\EnvironmentInfoDto.php                                                      -> EnvironmentInfoDto
C:\Users\Aaldert\git\psr4_batch\elw-8\app\Services\Dto\EventEvaluationDto.php                                                      -> EventEvaluationDto
C:\Users\Aaldert\git\psr4_batch\elw-8\app\Services\Dto\ExamInfoDto.php                                                             -> ExamInfoDto
C:\Users\Aaldert\git\psr4_batch\elw-8\app\Services\Dto\FavoriteDto.php                                                             -> FavoriteDto
C:\Users\Aaldert\git\psr4_batch\elw-8\app\Services\Dto\FinalExamDto.php                                                            -> FinalExamDto
C:\Users\Aaldert\git\psr4_batch\elw-8\app\Services\Dto\GenericDto.php                                                              -> GenericDto
C:\Users\Aaldert\git\psr4_batch\elw-8\app\Services\Dto\GroupDto.php                                                                -> GroupDto
C:\Users\Aaldert\git\psr4_batch\elw-8\app\Services\Dto\InvoiceDto.php                                                              -> InvoiceDto
C:\Users\Aaldert\git\psr4_batch\elw-8\app\Services\Dto\JobBatchDto.php                                                             -> JobBatchDto
C:\Users\Aaldert\git\psr4_batch\elw-8\app\Services\Dto\JobDto.php                                                                  -> JobDto
C:\Users\Aaldert\git\psr4_batch\elw-8\app\Services\Dto\LicenseDto.php                                                              -> LicenseDto
C:\Users\Aaldert\git\psr4_batch\elw-8\app\Services\Dto\OrganisationDto.php                                                         -> OrganisationDto
C:\Users\Aaldert\git\psr4_batch\elw-8\app\Services\Dto\PageContentDto.php                                                          -> PageContentDto
C:\Users\Aaldert\git\psr4_batch\elw-8\app\Services\Dto\PageDto.php                                                                 -> PageDto
C:\Users\Aaldert\git\psr4_batch\elw-8\app\Services\Dto\PayOptionDto.php                                                            -> PayOptionDto
C:\Users\Aaldert\git\psr4_batch\elw-8\app\Services\Dto\PlatformDto.php                                                             -> PlatformDto
C:\Users\Aaldert\git\psr4_batch\elw-8\app\Services\Dto\QuestionDto.php                                                             -> QuestionDto
C:\Users\Aaldert\git\psr4_batch\elw-8\app\Services\Dto\QuestionGroupDto.php                                                        -> QuestionGroupDto
C:\Users\Aaldert\git\psr4_batch\elw-8\app\Services\Dto\StaffelDto.php                                                              -> StaffelDto
C:\Users\Aaldert\git\psr4_batch\elw-8\app\Services\Dto\StamDataDto.php                                                             -> StamDataDto
C:\Users\Aaldert\git\psr4_batch\elw-8\app\Services\Dto\SubscriptionDto.php                                                         -> SubscriptionDto
C:\Users\Aaldert\git\psr4_batch\elw-8\app\Services\Dto\TaskDto.php                                                                 -> TaskDto
C:\Users\Aaldert\git\psr4_batch\elw-8\app\Services\Dto\TempTokenDto.php                                                            -> TempTokenDto
C:\Users\Aaldert\git\psr4_batch\elw-8\app\Services\Dto\TemplateDto.php                                                             -> TemplateDto
C:\Users\Aaldert\git\psr4_batch\elw-8\app\Services\Dto\ThemeDto.php                                                                -> ThemeDto
C:\Users\Aaldert\git\psr4_batch\elw-8\app\Services\Dto\TrainingParticipationEvaluationDto.php                                      -> TrainingParticipationEvaluationDto
C:\Users\Aaldert\git\psr4_batch\elw-8\app\Services\Dto\TransactionDto.php                                                          -> TransactionDto
C:\Users\Aaldert\git\psr4_batch\elw-8\app\Services\Dto\UserAnswerDto.php                                                           -> UserAnswerDto
C:\Users\Aaldert\git\psr4_batch\elw-8\app\Services\Dto\UserAnswerGroupDto.php                                                      -> UserAnswerGroupDto
C:\Users\Aaldert\git\psr4_batch\elw-8\app\Services\Dto\UserCourseDto.php                                                           -> UserCourseDto
C:\Users\Aaldert\git\psr4_batch\elw-8\app\Services\Dto\UserCourseEvaluationDto.php                                                 -> UserCourseEvaluationDto
C:\Users\Aaldert\git\psr4_batch\elw-8\app\Services\Dto\UserDto.php                                                                 -> UserDto
C:\Users\Aaldert\git\psr4_batch\elw-8\app\Services\Dto\UserInvoiceDto.php                                                          -> UserInvoiceDto
C:\Users\Aaldert\git\psr4_batch\elw-8\app\Services\Dto\UserKeyDto.php                                                              -> UserKeyDto
C:\Users\Aaldert\git\psr4_batch\elw-8\app\Services\Dto\VideoCaptionDto.php                                                         -> VideoCaptionDto
C:\Users\Aaldert\git\psr4_batch\elw-8\app\Services\Dto\VideoLessonDto.php                                                          -> VideoLessonDto
C:\Users\Aaldert\git\psr4_batch\elw-8\app\Services\ElementService.php                                                              -> ElementService
C:\Users\Aaldert\git\psr4_batch\elw-8\app\Services\ElementServiceInterface.php                                                     -> ElementServiceInterface
C:\Users\Aaldert\git\psr4_batch\elw-8\app\Services\Fileupload\Importusers.php                                                      -> Importusers
C:\Users\Aaldert\git\psr4_batch\elw-8\app\Services\Fileupload\SaveImportedUsers.php                                                -> SaveImportedUsers
C:\Users\Aaldert\git\psr4_batch\elw-8\app\Services\Fileupload\ValidateImportExcel.php                                              -> ValidateImportExcel
C:\Users\Aaldert\git\psr4_batch\elw-8\app\Services\Indexing\Course\CourseBodyIndex.php                                             -> CourseBodyIndex
C:\Users\Aaldert\git\psr4_batch\elw-8\app\Services\Indexing\Course\CourseDescriptionIndex.php                                      -> CourseDescriptionIndex
C:\Users\Aaldert\git\psr4_batch\elw-8\app\Services\Indexing\Course\CourseTitleIndex.php                                            -> CourseTitleIndex
C:\Users\Aaldert\git\psr4_batch\elw-8\app\Services\Indexing\Course\IndexingCourses.php                                             -> IndexingCourses
C:\Users\Aaldert\git\psr4_batch\elw-8\app\Services\Indexing\Course\IndexingSingleCourse.php                                        -> IndexingSingleCourse
C:\Users\Aaldert\git\psr4_batch\elw-8\app\Services\Indexing\SanitizeContent.php                                                    -> SanitizeContent
C:\Users\Aaldert\git\psr4_batch\elw-8\app\Services\Indexing\Training\IndexingSingleTraining.php                                    -> IndexingSingleTraining
C:\Users\Aaldert\git\psr4_batch\elw-8\app\Services\Indexing\Training\IndexingTrainings.php                                         -> IndexingTrainings
C:\Users\Aaldert\git\psr4_batch\elw-8\app\Services\Indexing\Training\TrainingDescriptionIndex.php                                  -> TrainingDescriptionIndex
C:\Users\Aaldert\git\psr4_batch\elw-8\app\Services\Indexing\Training\TrainingTitleIndex.php                                        -> TrainingTitleIndex
C:\Users\Aaldert\git\psr4_batch\elw-8\app\Services\Jobs\JobsService.php                                                            -> JobsService
C:\Users\Aaldert\git\psr4_batch\elw-8\app\Services\Jobs\JobsServiceInterface.php                                                   -> JobsServiceInterface
C:\Users\Aaldert\git\psr4_batch\elw-8\app\Services\LicenseService.php                                                              -> LicenseService
C:\Users\Aaldert\git\psr4_batch\elw-8\app\Services\LicenseServiceInterface.php                                                     -> LicenseServiceInterface
C:\Users\Aaldert\git\psr4_batch\elw-8\app\Services\LoggerService.php                                                               -> LoggerService
C:\Users\Aaldert\git\psr4_batch\elw-8\app\Services\LoggerServiceInterface.php                                                      -> LoggerServiceInterface
C:\Users\Aaldert\git\psr4_batch\elw-8\app\Services\MailService.php                                                                 -> MailService
C:\Users\Aaldert\git\psr4_batch\elw-8\app\Services\MailServiceInterface.php                                                        -> MailServiceInterface
C:\Users\Aaldert\git\psr4_batch\elw-8\app\Services\Mailing\ClosedCourseMail.php                                                    -> ClosedCourseMail
C:\Users\Aaldert\git\psr4_batch\elw-8\app\Services\Mailing\FreetrainingMail.php                                                    -> FreetrainingMail
C:\Users\Aaldert\git\psr4_batch\elw-8\app\Services\Mailing\RejectApprovedTrainingMails.php                                         -> RejectApprovedTrainingMails
C:\Users\Aaldert\git\psr4_batch\elw-8\app\Services\Mailing\SendPayedTrainingMail.php                                               -> SendPayedTrainingMail
C:\Users\Aaldert\git\psr4_batch\elw-8\app\Services\Mailing\SendStartingcourseMail.php                                              -> SendStartingcourseMail
C:\Users\Aaldert\git\psr4_batch\elw-8\app\Services\Mailing\SendUserTrainingRegisterMail.php                                        -> SendUserTrainingRegisterMail
C:\Users\Aaldert\git\psr4_batch\elw-8\app\Services\ManagementCourseService.php                                                     -> ManagementCourseService
C:\Users\Aaldert\git\psr4_batch\elw-8\app\Services\ManagementEvaluationService.php                                                 -> ManagementEvaluationService
C:\Users\Aaldert\git\psr4_batch\elw-8\app\Services\ManagementService.php                                                           -> ManagementService
C:\Users\Aaldert\git\psr4_batch\elw-8\app\Services\ManagementUserHoursService.php                                                  -> ManagementUserHoursService
C:\Users\Aaldert\git\psr4_batch\elw-8\app\Services\MembershipService.php                                                           -> MembershipService
C:\Users\Aaldert\git\psr4_batch\elw-8\app\Services\MembershipServiceInterface.php                                                  -> MembershipServiceInterface
C:\Users\Aaldert\git\psr4_batch\elw-8\app\Services\Oauth\Client\ELW.php                                                            -> ELW
C:\Users\Aaldert\git\psr4_batch\elw-8\app\Services\Oauth\Client\Innovo.php                                                         -> Innovo
C:\Users\Aaldert\git\psr4_batch\elw-8\app\Services\Oauth\Client\JWK.php                                                            -> JWK
C:\Users\Aaldert\git\psr4_batch\elw-8\app\Services\Oauth\Client\MCO.php                                                            -> MCO
C:\Users\Aaldert\git\psr4_batch\elw-8\app\Services\Oauth\Client\SGPerspectief.php                                                  -> SGPerspectief
C:\Users\Aaldert\git\psr4_batch\elw-8\app\Services\Oauth\Client\Venij.php                                                          -> Venij
C:\Users\Aaldert\git\psr4_batch\elw-8\app\Services\Oauth\Server\JwtLivisToken.php                                                  -> JwtLivisToken
C:\Users\Aaldert\git\psr4_batch\elw-8\app\Services\Oauth\Server\JwtToken.php                                                       -> JwtToken
C:\Users\Aaldert\git\psr4_batch\elw-8\app\Services\Oauth\Server\JwtVwitToken.php                                                   -> JwtVwitToken
C:\Users\Aaldert\git\psr4_batch\elw-8\app\Services\OrganisationService.php                                                         -> OrganisationService
C:\Users\Aaldert\git\psr4_batch\elw-8\app\Services\OrganisationServiceInterface.php                                                -> OrganisationServiceInterface
C:\Users\Aaldert\git\psr4_batch\elw-8\app\Services\PageService.php                                                                 -> PageService
C:\Users\Aaldert\git\psr4_batch\elw-8\app\Services\PageServiceInterface.php                                                        -> PageServiceInterface
C:\Users\Aaldert\git\psr4_batch\elw-8\app\Services\PaymentService.php                                                              -> PaymentService
C:\Users\Aaldert\git\psr4_batch\elw-8\app\Services\PaymentServiceInterface.php                                                     -> PaymentServiceInterface
C:\Users\Aaldert\git\psr4_batch\elw-8\app\Services\Pdf\CreatePdf.php                                                               -> CreatePdf
C:\Users\Aaldert\git\psr4_batch\elw-8\app\Services\PlatformService.php                                                             -> PlatformService
C:\Users\Aaldert\git\psr4_batch\elw-8\app\Services\PlatformServiceInterface.php                                                    -> PlatformServiceInterface
C:\Users\Aaldert\git\psr4_batch\elw-8\app\Services\QuestionService.php                                                             -> QuestionService
C:\Users\Aaldert\git\psr4_batch\elw-8\app\Services\QuestionServiceInterface.php                                                    -> QuestionServiceInterface
C:\Users\Aaldert\git\psr4_batch\elw-8\app\Services\ReportService.php                                                               -> ReportService
C:\Users\Aaldert\git\psr4_batch\elw-8\app\Services\ReportServiceInterface.php                                                      -> ReportServiceInterface
C:\Users\Aaldert\git\psr4_batch\elw-8\app\Services\Reports\Excel\CreateExcelWorkbook.php                                           -> CreateExcelWorkbook
C:\Users\Aaldert\git\psr4_batch\elw-8\app\Services\Reports\Excel\Evaluations\EvaluationExcel.php                                   -> EvaluationExcel
C:\Users\Aaldert\git\psr4_batch\elw-8\app\Services\Reports\Excel\Evaluations\Worksheets\Definitions\EvaluationSubQuestions.php     -> EvaluationSubQuestions
C:\Users\Aaldert\git\psr4_batch\elw-8\app\Services\Reports\Excel\Evaluations\Worksheets\Definitions\EvaluationTotals.php           -> EvaluationTotals
C:\Users\Aaldert\git\psr4_batch\elw-8\app\Services\Reports\Excel\Evaluations\Worksheets\EvaluationSubQuestions.php                 -> EvaluationSubQuestions
C:\Users\Aaldert\git\psr4_batch\elw-8\app\Services\Reports\Excel\Evaluations\Worksheets\EvaluationTotals.php                       -> EvaluationTotals
C:\Users\Aaldert\git\psr4_batch\elw-8\app\Services\Searching\AddSearchText.php                                                     -> AddSearchText
C:\Users\Aaldert\git\psr4_batch\elw-8\app\Services\Searching\Courses\CourseDetails.php                                             -> CourseDetails
C:\Users\Aaldert\git\psr4_batch\elw-8\app\Services\Searching\Courses\Coursekeyword\SearchForKeywords.php                           -> SearchForKeywords
C:\Users\Aaldert\git\psr4_batch\elw-8\app\Services\Searching\Courses\FrontpageCourses.php                                          -> FrontpageCourses
C:\Users\Aaldert\git\psr4_batch\elw-8\app\Services\Searching\Courses\MyCourseList.php                                              -> MyCourseList
C:\Users\Aaldert\git\psr4_batch\elw-8\app\Services\Searching\Courses\NewCoursesList.php                                            -> NewCoursesList
C:\Users\Aaldert\git\psr4_batch\elw-8\app\Services\Searching\Courses\PopulairCourseList.php                                        -> PopulairCourseList
C:\Users\Aaldert\git\psr4_batch\elw-8\app\Services\Searching\Courses\SetCoursesList.php                                            -> SetCoursesList
C:\Users\Aaldert\git\psr4_batch\elw-8\app\Services\Searching\Courses\TargetCourseList.php                                          -> TargetCourseList
C:\Users\Aaldert\git\psr4_batch\elw-8\app\Services\Searching\FrontpageOffers.php                                                   -> FrontpageOffers
C:\Users\Aaldert\git\psr4_batch\elw-8\app\Services\Searching\Scholingsplein\CollegaSortWeight.php                                  -> CollegaSortWeight
C:\Users\Aaldert\git\psr4_batch\elw-8\app\Services\Searching\SearchIndexedWords.php                                                -> SearchIndexedWords
C:\Users\Aaldert\git\psr4_batch\elw-8\app\Services\Searching\SearchWithCriteria\FindEverything.php                                 -> FindEverything
C:\Users\Aaldert\git\psr4_batch\elw-8\app\Services\Searching\SearchWithCriteria\Search.php                                         -> Search
C:\Users\Aaldert\git\psr4_batch\elw-8\app\Services\Searching\SearchWithCriteria\SearchCriteria.php                                 -> SearchCriteria
C:\Users\Aaldert\git\psr4_batch\elw-8\app\Services\Searching\SearchWithCriteria\SearchPhrase.php                                   -> SearchPhrase
C:\Users\Aaldert\git\psr4_batch\elw-8\app\Services\Searching\SearchWithCriteria\SearchTargets.php                                  -> SearchTargets
C:\Users\Aaldert\git\psr4_batch\elw-8\app\Services\Searching\SearchWithCriteria\Searchcategory.php                                 -> Searchcategory
C:\Users\Aaldert\git\psr4_batch\elw-8\app\Services\Searching\Trainings\FilterOrganisationTrainings.php                             -> FilterOrganisationTrainings
C:\Users\Aaldert\git\psr4_batch\elw-8\app\Services\Searching\Trainings\FrontpageTrainings.php                                      -> FrontpageTrainings
C:\Users\Aaldert\git\psr4_batch\elw-8\app\Services\Searching\Trainings\MyTrainingList.php                                          -> MyTrainingList
C:\Users\Aaldert\git\psr4_batch\elw-8\app\Services\Searching\Trainings\NewTrainingList.php                                         -> NewTrainingList
C:\Users\Aaldert\git\psr4_batch\elw-8\app\Services\Searching\Trainings\TargetTrainings.php                                         -> TargetTrainings
C:\Users\Aaldert\git\psr4_batch\elw-8\app\Services\Searching\Trainings\TrainingDetails.php                                         -> TrainingDetails
C:\Users\Aaldert\git\psr4_batch\elw-8\app\Services\Searching\Trainings\TrainingTypes.php                                           -> TrainingTypes
C:\Users\Aaldert\git\psr4_batch\elw-8\app\Services\Sso\SsoHelper.php                                                               -> SsoHelper
C:\Users\Aaldert\git\psr4_batch\elw-8\app\Services\Sso\SsoLoginVerification.php                                                    -> SsoLoginVerification
C:\Users\Aaldert\git\psr4_batch\elw-8\app\Services\Sso\SsoTokenGenerator.php                                                       -> SsoTokenGenerator
C:\Users\Aaldert\git\psr4_batch\elw-8\app\Services\Sso\SsoTokenVerification.php                                                    -> SsoTokenVerification
C:\Users\Aaldert\git\psr4_batch\elw-8\app\Services\Sso\SsoUrlGenerator.php                                                         -> SsoUrlGenerator
C:\Users\Aaldert\git\psr4_batch\elw-8\app\Services\StamDataService.php                                                             -> StamDataService
C:\Users\Aaldert\git\psr4_batch\elw-8\app\Services\StamDataServiceInterface.php                                                    -> StamDataServiceInterface
C:\Users\Aaldert\git\psr4_batch\elw-8\app\Services\Subscriptions\AttachSubscriptionCourses.php                                     -> AttachSubscriptionCourses
C:\Users\Aaldert\git\psr4_batch\elw-8\app\Services\Subscriptions\AttachUsersToCourses.php                                          -> AttachUsersToCourses
C:\Users\Aaldert\git\psr4_batch\elw-8\app\Services\Subscriptions\DetachSubscriptionCourses.php                                     -> DetachSubscriptionCourses
C:\Users\Aaldert\git\psr4_batch\elw-8\app\Services\Subscriptions\DetachUsersToCourses.php                                          -> DetachUsersToCourses
C:\Users\Aaldert\git\psr4_batch\elw-8\app\Services\Subscriptions\SyncLicensesFromBeheer.php                                        -> SyncLicensesFromBeheer
C:\Users\Aaldert\git\psr4_batch\elw-8\app\Services\TemplateService.php                                                             -> TemplateService
C:\Users\Aaldert\git\psr4_batch\elw-8\app\Services\TemplateServiceInterface.php                                                    -> TemplateServiceInterface
C:\Users\Aaldert\git\psr4_batch\elw-8\app\Services\ThemeService.php                                                                -> ThemeService
C:\Users\Aaldert\git\psr4_batch\elw-8\app\Services\ThemeServiceInterface.php                                                       -> ThemeServiceInterface
C:\Users\Aaldert\git\psr4_batch\elw-8\app\Services\Training\TrainingRegistrationStatus.php                                         -> TrainingRegistrationStatus
C:\Users\Aaldert\git\psr4_batch\elw-8\app\Services\Training\Trainingstatus\ParticipationInschrijfStatus.php                        -> ParticipationInschrijfStatus
C:\Users\Aaldert\git\psr4_batch\elw-8\app\Services\Training\Trainingstatus\ParticipationStatus.php                                 -> ParticipationStatus
C:\Users\Aaldert\git\psr4_batch\elw-8\app\Services\Training\Trainingstatus\ScholingParticipationstatus.php                         -> ScholingParticipationstatus
C:\Users\Aaldert\git\psr4_batch\elw-8\app\Services\Training\Trainingstatus\ThemadagParticipationstatus.php                         -> ThemadagParticipationstatus
C:\Users\Aaldert\git\psr4_batch\elw-8\app\Services\UserGroupService.php                                                            -> UserGroupService
C:\Users\Aaldert\git\psr4_batch\elw-8\app\Services\UserGroupServiceInterface.php                                                   -> UserGroupServiceInterface
C:\Users\Aaldert\git\psr4_batch\elw-8\app\Services\UserService.php                                                                 -> UserService
C:\Users\Aaldert\git\psr4_batch\elw-8\app\Services\UserServiceInterface.php                                                        -> UserServiceInterface
C:\Users\Aaldert\git\psr4_batch\elw-8\app\Services\VideoService.php                                                                -> VideoService
C:\Users\Aaldert\git\psr4_batch\elw-8\app\Services\VideoServiceInterface.php                                                       -> VideoServiceInterface
C:\Users\Aaldert\git\psr4_batch\elw-8\app\Services\managementUsercourseService.php                                                 -> ManagementUsercourseService